{
    "message": "Success get all shipment!",
    "data": {
        "content": [
            {
                "id": "5348cb9d-cc0c-4124-9f6d-f88a094dcab5",
                "receipt_number": "08921114",
                "courier": "Unknown",
                "date": "2024-10-10T15:00:49.174339Z"
            },
            {
                "id": "98b6bba4-54ad-4ead-9091-36571679acbd",
                "receipt_number": "01187144",
                "courier": "Unknown",
                "date": "2024-10-10T14:36:10.800545Z"
            },
            {
                "id": "05c0cef6-9c5d-4165-9145-b2c41f43a5e8",
                "receipt_number": "SPXID04751919594A",
                "courier": "Shopee Express",
                "date": "2024-10-10T14:05:11.400718Z"
            },
            {
                "id": "2e49fff5-a114-42b4-a915-c999195c1def",
                "receipt_number": "SPXID04097392007A",
                "courier": "Shopee Express",
                "date": "2024-10-10T14:04:53.005319Z"
            },
            {
                "id": "b6d7fe83-130b-4111-9e16-958d2b7aee10",
                "receipt_number": "SPXID04887755532A",
                "courier": "Shopee Express",
                "date": "2024-10-10T14:04:48.903487Z"
            },
            {
                "id": "792d43ba-8e55-4ad9-b9e0-9386dd5a1164",
                "receipt_number": "SPXID04682967333A",
                "courier": "Shopee Express",
                "date": "2024-10-10T14:04:45.077303Z"
            },
            {
                "id": "48b92e18-7be3-4ea9-8732-c3f2b645b6b1",
                "receipt_number": "10445628",
                "courier": "Unknown",
                "date": "2024-10-10T14:04:37.598077Z"
            },
            {
                "id": "41fd00c8-2181-40e3-bcf2-d82c6393400c",
                "receipt_number": "SPXID04142438342A",
                "courier": "Shopee Express",
                "date": "2024-10-10T14:04:33.919765Z"
            },
            {
                "id": "afda7422-4bac-4b0d-ac2e-684ae2f917fd",
                "receipt_number": "SPXID04276079383A",
                "courier": "Shopee Express",
                "date": "2024-10-10T14:04:04.247287Z"
            },
            {
                "id": "93a6d066-ef3c-47b0-bc40-589fc4a9e27e",
                "receipt_number": "18213113",
                "courier": "Unknown",
                "date": "2024-10-10T13:54:02.911194Z"
            }
        ],
        "metadata": {
            "total": 17,
            "total_page": 2,
            "page": 1,
            "per_page": 10
        }
    }
}