{
    "message": "Success get all report shipment!",
    "data": {
        "content": [
            {
                "id": "669f9bcb-0153-4f1e-9750-c7c0c04cdb87",
                "name": "Reporting of 2025-09-21 - 2025-09-21 16:30:07",
                "status": "completed",
                "file": "https://storage.dianmandirigrup.id/staging-app/shipment/report/ab1b64ef-a540-46ce-b17e-fbf0877da515.xlsx",
                "date": "2025-09-21T16:30:12.164136Z"
            }
        ],
        "metadata": {
            "total": 12,
            "total_page": 2,
            "page": 1,
            "per_page": 10
        }
    }
}